gimap for treatment experiment • gimap
…
Lastly, let’s take a look at the by target results. We can arrange by
results using dplyr::arrange()

gimap_dataset$results$by_target %>%
  dplyr::arrange(fdr_vals_wil_dmsoA_dmso)
#> # A tibble: 1,030 × 17
#>    targets  p_val_ttest_dmsoA_dmso p_val_ttest_dmsoB_dmso p_val_ttest_drug1A_d…¹
#>    <chr>                     <dbl>                  <dbl>                  <dbl>
#>  1 RBBP7_R…             0.00000547               0.00233                  0.235 
#>  2 AP2A1_A…             0.000174                 0.000298                 0.0515
#>  3 ATP6V1E…             0.0000251                0.0384                   0.319 
#>  4 KCTD2_K…             0.00000696               0.0121                   0.0103
#>  5 GRIP2_G…             0.00000720               0.187                    0.122 
#>  6 MPPED2_…             0.0000250                0.328                    0.426 
#>  7 CSTF2T_…             0.000132                 0.195                    0.880 
#>  8 LHFPL6_…             0.0000130                0.985                    0.356 
#>  9 HRASLS2…             0.0000154                0.966                    0.120 
#> 10 PSMB6_P…             0.0000310                0.621                    0.0127
#> # ℹ 1,020 more rows
#> # ℹ abbreviated name: ¹​p_val_ttest_drug1A_drug
#> # ℹ 13 more variables: p_val_ttest_drug1B_drug <dbl>,
#> #   p_val_wil_dmsoA_dmso <dbl>, p_val_wil_dmsoB_dmso <dbl>,
#> #   p_val_wil_drug1A_drug <dbl>, p_val_wil_drug1B_drug <dbl>,
#> #   fdr_vals_ttest_dmsoA_dmso <dbl>, fdr_vals_ttest_dmsoB_dmso <dbl>,
#> #   fdr_vals_ttest_drug1A_drug <dbl>, fdr_vals_ttest_drug1B_drug <dbl>, …
…
